	NUMA 0 -> CUDA 0	2.2522 GB	1108.6447 MB/s	(transfers : 164 - avg 14.0625 MB)
	CUDA 0 -> NUMA 0	0.0000 GB	0.0000 MB/s	(transfers : 0 - avg -nan MB)
	NUMA 0 -> CUDA 1	2.2797 GB	1122.1675 MB/s	(transfers : 166 - avg 14.0625 MB)
	CUDA 1 -> NUMA 0	0.0000 GB	0.0000 MB/s	(transfers : 0 - avg -nan MB)
	CUDA 0 -> CUDA 1	0.7416 GB	365.0417 MB/s	(transfers : 54 - avg 14.0625 MB)
	CUDA 1 -> CUDA 0	0.7690 GB	378.5614 MB/s	(transfers : 56 - avg 14.0625 MB)
	NUMA 0 -> CUDA 0	4.6692 GB	1123.9276 MB/s	(transfers : 340 - avg 14.0625 MB)
	CUDA 0 -> NUMA 0	0.0000 GB	0.0000 MB/s	(transfers : 0 - avg -nan MB)
	NUMA 0 -> CUDA 1	4.6143 GB	1110.7041 MB/s	(transfers : 336 - avg 14.0625 MB)
	CUDA 1 -> NUMA 0	0.0000 GB	0.0000 MB/s	(transfers : 0 - avg -nan MB)
	CUDA 0 -> CUDA 1	1.2634 GB	304.1211 MB/s	(transfers : 92 - avg 14.0625 MB)
	CUDA 1 -> CUDA 0	1.1948 GB	287.5926 MB/s	(transfers : 87 - avg 14.0625 MB)
	NUMA 0 -> CUDA 0	2.2659 GB	1076.2377 MB/s	(transfers : 165 - avg 14.0625 MB)
	CUDA 0 -> NUMA 0	0.0000 GB	0.0000 MB/s	(transfers : 0 - avg -nan MB)
	NUMA 0 -> CUDA 1	2.2659 GB	1076.2453 MB/s	(transfers : 165 - avg 14.0625 MB)
	CUDA 1 -> NUMA 0	0.0000 GB	0.0000 MB/s	(transfers : 0 - avg -nan MB)
	CUDA 0 -> CUDA 1	0.0000 GB	0.0000 MB/s	(transfers : 0 - avg -nan MB)
	CUDA 1 -> CUDA 0	0.0000 GB	0.0000 MB/s	(transfers : 0 - avg -nan MB)
	NUMA 0 -> CUDA 0	6.0425 GB	1445.6381 MB/s	(transfers : 440 - avg 14.0625 MB)
	CUDA 0 -> NUMA 0	0.0000 GB	0.0000 MB/s	(transfers : 0 - avg -nan MB)
	NUMA 0 -> CUDA 1	5.4382 GB	1301.0747 MB/s	(transfers : 396 - avg 14.0625 MB)
	CUDA 1 -> NUMA 0	0.0000 GB	0.0000 MB/s	(transfers : 0 - avg -nan MB)
	CUDA 0 -> CUDA 1	0.0000 GB	0.0000 MB/s	(transfers : 0 - avg -nan MB)
	CUDA 1 -> CUDA 0	0.0000 GB	0.0000 MB/s	(transfers : 0 - avg -nan MB)
	NUMA 0 -> CUDA 0	2.1835 GB	927.4697 MB/s	(transfers : 159 - avg 14.0625 MB)
	CUDA 0 -> NUMA 0	0.0000 GB	0.0000 MB/s	(transfers : 0 - avg -nan MB)
	NUMA 0 -> CUDA 1	2.2797 GB	968.2961 MB/s	(transfers : 166 - avg 14.0625 MB)
	CUDA 1 -> NUMA 0	0.0000 GB	0.0000 MB/s	(transfers : 0 - avg -nan MB)
	CUDA 0 -> CUDA 1	0.1099 GB	46.6648 MB/s	(transfers : 8 - avg 14.0625 MB)
	CUDA 1 -> CUDA 0	0.2335 GB	99.1626 MB/s	(transfers : 17 - avg 14.0625 MB)
	NUMA 0 -> CUDA 0	4.6005 GB	1060.9271 MB/s	(transfers : 335 - avg 14.0625 MB)
	CUDA 0 -> NUMA 0	0.0000 GB	0.0000 MB/s	(transfers : 0 - avg -nan MB)
	NUMA 0 -> CUDA 1	4.4083 GB	1016.5852 MB/s	(transfers : 321 - avg 14.0625 MB)
	CUDA 1 -> NUMA 0	0.0000 GB	0.0000 MB/s	(transfers : 0 - avg -nan MB)
	CUDA 0 -> CUDA 1	0.1923 GB	44.3370 MB/s	(transfers : 14 - avg 14.0625 MB)
	CUDA 1 -> CUDA 0	0.0275 GB	6.3339 MB/s	(transfers : 2 - avg 14.0625 MB)
	NUMA 0 -> CUDA 0	2.2659 GB	1063.5000 MB/s	(transfers : 165 - avg 14.0625 MB)
	CUDA 0 -> NUMA 0	0.0000 GB	0.0000 MB/s	(transfers : 0 - avg -nan MB)
	NUMA 0 -> CUDA 1	2.4033 GB	1127.9543 MB/s	(transfers : 175 - avg 14.0625 MB)
	CUDA 1 -> NUMA 0	0.0000 GB	0.0000 MB/s	(transfers : 0 - avg -nan MB)
	CUDA 0 -> CUDA 1	0.0137 GB	6.4454 MB/s	(transfers : 1 - avg 14.0625 MB)
	CUDA 1 -> CUDA 0	0.1511 GB	70.8998 MB/s	(transfers : 11 - avg 14.0625 MB)
	NUMA 0 -> CUDA 0	3.9276 GB	973.6741 MB/s	(transfers : 286 - avg 14.0625 MB)
	CUDA 0 -> NUMA 0	0.0000 GB	0.0000 MB/s	(transfers : 0 - avg -nan MB)
	NUMA 0 -> CUDA 1	4.5319 GB	1123.4654 MB/s	(transfers : 330 - avg 14.0625 MB)
	CUDA 1 -> NUMA 0	0.0000 GB	0.0000 MB/s	(transfers : 0 - avg -nan MB)
	CUDA 0 -> CUDA 1	0.3433 GB	85.1109 MB/s	(transfers : 25 - avg 14.0625 MB)
	CUDA 1 -> CUDA 0	0.5768 GB	142.9863 MB/s	(transfers : 42 - avg 14.0625 MB)
	NUMA 0 -> CUDA 0	1.5244 GB	763.0806 MB/s	(transfers : 111 - avg 14.0625 MB)
	CUDA 0 -> NUMA 0	0.0000 GB	0.0000 MB/s	(transfers : 0 - avg -nan MB)
	NUMA 0 -> CUDA 1	1.5518 GB	776.8361 MB/s	(transfers : 113 - avg 14.0625 MB)
	CUDA 1 -> NUMA 0	0.0000 GB	0.0000 MB/s	(transfers : 0 - avg -nan MB)
	CUDA 0 -> CUDA 1	0.7141 GB	357.4814 MB/s	(transfers : 52 - avg 14.0625 MB)
	CUDA 1 -> CUDA 0	0.7416 GB	371.2303 MB/s	(transfers : 54 - avg 14.0625 MB)
	NUMA 0 -> CUDA 0	3.0212 GB	747.3572 MB/s	(transfers : 220 - avg 14.0625 MB)
	CUDA 0 -> NUMA 0	0.0000 GB	0.0000 MB/s	(transfers : 0 - avg -nan MB)
	NUMA 0 -> CUDA 1	3.0212 GB	747.3535 MB/s	(transfers : 220 - avg 14.0625 MB)
	CUDA 1 -> NUMA 0	0.0000 GB	0.0000 MB/s	(transfers : 0 - avg -nan MB)
	CUDA 0 -> CUDA 1	1.5106 GB	373.6758 MB/s	(transfers : 110 - avg 14.0625 MB)
	CUDA 1 -> CUDA 0	1.5106 GB	373.6752 MB/s	(transfers : 110 - avg 14.0625 MB)
	NUMA 0 -> CUDA 0	1.5518 GB	774.8988 MB/s	(transfers : 113 - avg 14.0625 MB)
	CUDA 0 -> NUMA 0	0.0000 GB	0.0000 MB/s	(transfers : 0 - avg -nan MB)
	NUMA 0 -> CUDA 1	1.5106 GB	754.3273 MB/s	(transfers : 110 - avg 14.0625 MB)
	CUDA 1 -> NUMA 0	0.0000 GB	0.0000 MB/s	(transfers : 0 - avg -nan MB)
	CUDA 0 -> CUDA 1	0.7553 GB	377.1630 MB/s	(transfers : 55 - avg 14.0625 MB)
	CUDA 1 -> CUDA 0	0.7141 GB	356.5900 MB/s	(transfers : 52 - avg 14.0625 MB)
	NUMA 0 -> CUDA 0	3.0212 GB	778.0241 MB/s	(transfers : 220 - avg 14.0625 MB)
	CUDA 0 -> NUMA 0	0.0000 GB	0.0000 MB/s	(transfers : 0 - avg -nan MB)
	NUMA 0 -> CUDA 1	3.0212 GB	778.0240 MB/s	(transfers : 220 - avg 14.0625 MB)
	CUDA 1 -> NUMA 0	0.0000 GB	0.0000 MB/s	(transfers : 0 - avg -nan MB)
	CUDA 0 -> CUDA 1	1.5106 GB	389.0116 MB/s	(transfers : 110 - avg 14.0625 MB)
	CUDA 1 -> CUDA 0	1.5106 GB	389.0114 MB/s	(transfers : 110 - avg 14.0625 MB)
