0
4
2
6
1
5
3
7
0
4
2
6
1
5
3
7
0
4
2
6
1
5
3
7
0
4
2
6
1
5
3
7
0
4
2
6
1
5
3
7
0
4
2
6
1
5
3
7
0
4
2
6
1
5
3
7
0
4
2
6
1
5
3
7
0
4
2
6
1
5
3
7
0
4
2
6
1
5
3
7
0
4
2
6
1
5
3
7
0
4
2
6
1
5
3
7
0
4
2
6
1
5
3
7
0
4
2
6
1
5
3
7
0
4
2
6
1
5
3
7
0
4
2
6
1
5
3
7
0
4
2
6
1
5
3
7
0
4
2
6
1
5
3
7
0
4
2
6
1
5
3
7
0
4
2
6
1
5
3
7
0
4
2
6
1
5
3
7
0
4
2
6
1
5
3
7
0
4
2
6
1
5
3
7
0
4
2
6
1
5
3
7
0
4
2
6
1
5
3
7
0
4
2
6
1
5
3
7
0
4
2
6
1
5
3
7
0
4
2
6
1
5
3
7
0
4
2
6
1
5
3
7
0
4
2
6
1
5
3
7
0
4
2
6
1
5
3
7
0
4
2
6
1
5
3
7
0
4
2
6
1
5
3
7
0
4
2
6
1
5
3
7
0
4
2
6
1
5
3
7
0
4
2
6
1
5
3
7
0
4
2
6
1
5
3
7
0
4
2
6
1
5
3
7
0
4
2
6
1
5
3
7
0
4
2
6
1
5
3
7
0
4
2
6
1
5
3
7
0
4
2
6
1
5
3
7
0
4
2
6
1
5
3
7
0
4
2
6
1
5
3
7
0
4
2
6
1
5
3
7
0
4
2
6
1
5
3
7
0
4
2
6
1
5
3
7
0
4
2
6
1
5
3
7
0
4
2
6
1
5
3
7
0
4
2
6
1
5
3
7
0
4
2
6
1
5
3
7
0
4
2
6
1
5
3
7
0
4
2
6
1
5
3
7
0
4
2
6
1
5
3
7
0
4
2
6
1
5
3
7
0
4
2
6
1
5
3
7
0
4
2
6
1
5
3
7
0
4
2
6
1
5
3
7
0
4
2
6
1
5
3
7
0
4
2
6
1
5
3
7
0
4
2
6
1
5
3
7
0
4
2
6
1
5
3
7
0
4
2
6
1
5
3
7
0
4
2
6
1
5
3
7
0
4
2
6
1
5
3
7
0
4
2
6
1
5
3
7
0
4
2
6
1
5
3
7
0
4
2
6
1
5
3
7
0
4
2
6
1
5
3
7
0
4
2
6
1
5
3
7
0
4
2
6
1
5
3
7
0
4
2
6
1
5
3
7
0
4
2
6
1
5
3
7
0
4
2
6
1
5
3
7
0
4
2
6
1
5
3
7
0
4
2
6
1
5
3
7
0
4
2
6
1
5
3
7
0
4
2
6
1
5
3
7
0
4
2
6
1
5
3
7
0
4
2
6
1
5
3
7
0
4
2
6
1
5
3
7
0
4
2
6
1
5
3
7
0
4
2
6
1
5
3
7
0
4
2
6
1
5
3
7
0
4
2
6
1
5
3
7
0
4
2
6
1
5
3
7
0
4
2
6
1
5
3
7
0
4
2
6
1
5
3
7
0
4
2
6
1
5
3
7
0
4
2
6
1
5
3
7
0
4
2
6
1
5
3
7
0
4
2
6
1
5
3
7
0
4
2
6
1
5
3
7
0
4
2
6
1
5
3
7
0
4
2
6
1
5
3
7
0
4
2
6
1
5
3
7
0
4
2
6
1
5
3
7
0
4
2
6
1
5
3
7
0
4
2
6
1
5
3
7
0
4
2
6
1
5
3
7
0
4
2
6
1
5
3
7
0
4
2
6
1
5
3
7
0
4
2
6
1
5
3
7
0
4
2
6
1
5
3
7
0
4
2
6
1
5
3
7
0
4
2
6
1
5
3
7
0
4
2
6
1
5
3
7
0
4
2
6
1
5
3
7
0
4
2
6
1
5
3
7
0
4
2
6
1
5
3
7
0
4
2
6
1
5
3
7
0
4
2
6
1
5
3
7
0
4
2
6
1
5
3
7
0
4
2
6
1
5
3
7
0
4
2
6
1
5
3
7
0
4
2
6
1
5
3
7
0
4
2
6
1
5
3
7
0
4
2
6
1
5
3
7
0
4
2
6
1
5
3
7
0
4
2
6
1
5
3
7
0
4
2
6
1
5
3
7
0
4
2
6
1
5
3
7
0
4
2
6
1
5
3
7
0
4
2
6
1
5
3
7
0
4
2
6
1
5
3
7
0
4
2
6
1
5
3
7
0
4
2
6
1
5
3
7
0
4
2
6
1
5
3
7
0
4
2
6
1
5
3
7
0
4
2
6
1
5
3
7
0
4
2
6
1
5
3
7
0
4
2
6
1
5
3
7
0
4
2
6
1
5
3
7
0
4
2
6
1
5
3
7
0
4
2
6
1
5
3
7
0
4
2
6
1
5
3
7
0
4
2
6
1
5
3
7
0
4
2
6
1
5
3
7
0
4
2
6
1
5
3
7
0
4
2
6
1
5
3
7
0
4
2
6
1
5
3
7
0
4
2
6
1
5
3
7
0
4
2
6
1
5
3
7
0
4
2
6
1
5
3
7
0
4
2
6
1
5
3
7
0
4
2
6
1
5
3
7
0
4
2
6
1
5
3
7
0
4
2
6
1
5
3
7
0
4
2
6
1
5
3
7
0
4
2
6
1
5
3
7
0
4
2
6
1
5
3
7
0
4
2
6
1
5
3
7
0
4
2
6
1
5
3
7
0
4
2
6
1
5
3
7
0
4
2
6
1
5
3
7
0
4
2
6
1
5
3
7
0
4
2
6
1
5
3
7
0
4
2
6
1
5
3
7
0
4
2
6
1
5
3
7
0
4
2
6
1
5
3
7
0
4
2
6
1
5
3
7
0
4
2
6
1
5
3
7
0
4
2
6
1
5
3
7
0
4
2
6
1
5
3
7
0
4
2
6
1
5
3
7
0
4
2
6
1
5
3
7
0
4
2
6
1
5
3
7
0
4
2
6
1
5
3
7
0
4
2
6
1
5
3
7
0
4
2
6
1
5
3
7
0
4
2
6
1
5
3
7
0
4
2
6
1
5
3
7
0
4
2
6
1
5
3
7
0
4
2
6
1
5
3
7
0
4
2
6
1
5
3
7
0
4
2
6
1
5
3
7
0
4
2
6
1
5
3
7
0
4
2
6
1
5
3
7
0
4
2
6
1
5
3
7
0
4
2
6
1
5
3
7
0
4
2
6
1
5
3
7
0
4
2
6
1
5
3
7
0
4
2
6
1
5
3
7
0
4
2
6
1
5
3
7
0
4
2
6
1
5
3
7
0
4
2
6
1
5
3
7
0
4
2
6
1
5
3
7
0
4
2
6
1
5
3
7
0
4
2
6
1
5
3
7
0
4
2
6
1
5
3
7
0
4
2
6
1
5
3
7
0
4
2
6
1
5
3
7
0
4
2
6
1
5
3
7
0
4
2
6
1
5
3
7
0
4
2
6
1
5
3
7
0
4
2
6
1
5
3
7
0
4
2
6
1
5
3
7
0
4
2
6
1
5
3
7
0
4
2
6
1
5
3
7
0
4
2
6
1
5
3
7
0
4
2
6
1
5
3
7
0
4
2
6
1
5
3
7
0
4
2
6
1
5
3
7
0
4
2
6
1
5
3
7
0
4
2
6
1
5
3
7
0
4
2
6
1
5
3
7
0
4
2
6
1
5
3
7
0
4
2
6
1
5
3
7
0
4
2
6
1
5
3
7
0
4
2
6
1
5
3
7
0
4
2
6
1
5
3
7
0
4
2
6
1
5
3
7
0
4
2
6
1
5
3
7
0
4
2
6
1
5
3
7
0
4
2
6
1
5
3
7
0
4
2
6
1
5
3
7
0
4
2
6
1
5
3
7
0
4
2
6
1
5
3
7
0
4
2
6
1
5
3
7
0
4
2
6
1
5
3
7
0
4
2
6
1
5
3
7
0
4
2
6
1
5
3
7
0
4
2
6
1
5
3
7
0
4
2
6
1
5
3
7
0
4
2
6
1
5
3
7
0
4
2
6
1
5
3
7
0
4
2
6
1
5
3
7
0
4
2
6
1
5
3
7
0
4
2
6
1
5
3
7
0
4
2
6
1
5
3
7
0
4
2
6
1
5
3
7
0
4
2
6
1
5
3
7
0
4
2
6
1
5
3
7
0
4
2
6
1
5
3
7
0
4
2
6
1
5
3
7
0
4
2
6
1
5
3
7
0
4
2
6
1
5
3
7
0
4
2
6
1
5
3
7
0
4
2
6
1
5
3
7
0
4
2
6
1
5
3
7
0
4
2
6
1
5
3
7
0
4
2
6
1
5
3
7
0
4
2
6
1
5
3
7
0
4
2
6
1
5
3
7
0
4
2
6
1
5
3
7
0
4
2
6
1
5
3
7
0
4
2
6
1
5
3
7
0
4
2
6
1
5
3
7
0
4
2
6
1
5
3
7
0
4
2
6
1
5
3
7
0
4
2
6
1
5
3
7
0
4
2
6
1
5
3
7
0
4
2
6
1
5
3
7
0
4
2
6
1
5
3
7
0
4
2
6
1
5
3
7
0
4
2
6
1
5
3
7
0
4
2
6
1
5
3
7
0
4
2
6
1
5
3
7
0
4
2
6
1
5
3
7
0
4
2
6
1
5
3
7
0
4
2
6
1
5
3
7
0
4
2
6
1
5
3
7
0
4
2
6
1
5
3
7
0
4
2
6
1
5
3
7
0
4
2
6
1
5
3
7
0
4
2
6
1
5
3
7
0
4
2
6
1
5
3
7
0
4
2
6
1
5
3
7
0
4
2
6
1
5
3
7
0
4
2
6
1
5
3
7
0
4
2
6
1
5
3
7
0
4
2
6
1
5
3
7
0
4
2
6
1
5
3
7
0
4
2
6
1
5
3
7
0
4
2
6
1
5
3
7
0
4
2
6
1
5
3
7
0
4
2
6
1
5
3
7
0
4
2
6
1
5
3
7
0
4
2
6
1
5
3
7
0
4
2
6
1
5
3
7
0
4
2
6
1
5
3
7
0
4
2
6
1
5
3
7
0
4
2
6
1
5
3
7
0
4
2
6
1
5
3
7
0
4
2
6
1
5
3
7
0
4
2
6
1
5
3
7
0
4
2
6
1
5
3
7
0
4
2
6
1
5
3
7
0
4
2
6
1
5
3
7
0
4
2
6
1
5
3
7
0
4
2
6
1
5
3
7
0
4
2
6
1
5
3
7
0
4
2
6
1
5
3
7
0
4
2
6
1
5
3
7
0
4
2
6
1
5
3
7
0
4
2
6
1
5
3
7
0
4
2
6
1
5
3
7
0
4
2
6
1
5
3
7
0
4
2
6
1
5
3
7
0
4
2
6
1
5
3
7
0
4
2
6
1
5
3
7
0
4
2
6
1
5
3
7
0
4
2
6
1
5
3
7
0
4
2
6
1
5
3
7
0
4
2
6
1
5
3
7
0
4
2
6
1
5
3
7
0
4
2
6
1
5
3
7
0
4
2
6
1
5
3
7
0
4
2
6
1
5
3
7
0
4
2
6
1
5
3
7
0
4
2
6
1
5
3
7
0
4
2
6
1
5
3
7
0
4
2
6
1
5
3
7
0
4
2
6
1
5
3
7
0
4
2
6
1
5
3
7
0
4
2
6
1
5
3
7
0
4
2
6
1
5
3
7
0
4
2
6
1
5
3
7
0
4
2
6
1
5
3
7
0
4
2
6
1
5
3
7
0
4
2
6
1
5
3
7
0
4
2
6
1
5
3
7
0
4
2
6
1
5
3
7
0
4
2
6
1
5
3
7
0
4
2
6
1
5
3
7
0
4
2
6
1
5
3
7
0
4
2
6
1
5
3
7
0
4
2
6
1
5
3
7
0
4
2
6
1
5
3
7
0
4
2
6
1
5
3
7
0
4
2
6
1
5
3
7
0
4
2
6
1
5
3
7
0
4
2
6
1
5
3
7
0
4
2
6
1
5
3
7
0
4
2
6
1
5
3
7
0
4
2
6
1
5
3
7
0
4
2
6
1
5
3
7
0
4
2
6
1
5
3
7
0
4
2
6
1
5
3
7
0
4
2
6
1
5
3
7
0
4
2
6
1
5
3
7
0
4
2
6
1
5
3
7
0
4
2
6
1
5
3
7
0
4
2
6
1
5
3
7
0
4
2
6
1
5
3
7
0
4
2
6
1
5
3
7
0
4
2
6
1
5
3
7
0
4
2
6
1
5
3
7
0
4
2
6
1
5
3
7
0
4
2
6
1
5
3
7
0
4
2
6
1
5
3
7
0
4
2
6
1
5
3
7
0
4
2
6
1
5
3
7
0
4
2
6
1
5
3
7
0
4
2
6
1
5
3
7
0
4
2
6
1
5
3
7
0
4
2
6
1
5
3
7
0
4
2
6
1
5
3
7
0
4
2
6
1
5
3
7
0
4
2
6
1
5
3
7
0
4
2
6
1
5
3
7
0
4
2
6
1
5
3
7
0
4
2
6
1
5
3
7
0
4
2
6
1
5
3
7
0
4
2
6
1
5
3
7
0
4
2
6
1
5
3
7
0
4
2
6
1
5
3
7
0
4
2
6
1
5
3
7
0
4
2
6
1
5
3
7
0
4
2
6
1
5
3
7
0
4
2
6
1
5
3
7
0
4
2
6
1
5
3
7
0
4
2
6
1
5
3
7
0
4
2
6
1
5
3
7
0
4
2
6
1
5
3
7
0
4
2
6
1
5
3
7
0
4
2
6
1
5
3
7
0
4
2
6
1
5
3
7
0
4
2
6
1
5
3
7
0
4
2
6
1
5
3
7
0
4
2
6
1
5
3
7
0
4
2
6
1
5
3
7
0
4
2
6
1
5
3
7
0
4
2
6
1
5
3
7
0
4
2
6
1
5
3
7
0
4
2
6
1
5
3
7
0
4
2
6
1
5
3
7
0
4
2
6
1
5
3
7
0
4
2
6
1
5
3
7
0
4
2
6
1
5
3
7
0
4
2
6
1
5
3
7
0
4
2
6
1
5
3
7
0
4
2
6
1
5
3
7
0
4
2
6
1
5
3
7
0
4
2
6
1
5
3
7
0
4
2
6
1
5
3
7
0
4
2
6
1
5
3
7
0
4
2
6
1
5
3
7
0
4
2
6
1
5
3
7
0
4
2
6
1
5
3
7
0
4
2
6
1
5
3
7
0
4
2
6
1
5
3
7
0
4
2
6
1
5
3
7
0
4
2
6
1
5
3
7
0
4
2
6
1
5
3
7
0
4
2
6
1
5
3
7
0
4
2
6
1
5
3
7
0
4
2
6
1
5
3
7
0
4
2
6
1
5
3
7
0
4
2
6
1
5
3
7
0
4
2
6
1
5
3
7
0
4
2
6
1
5
3
7
0
4
2
6
1
5
3
7
0
4
2
6
1
5
3
7
0
4
2
6
1
5
3
7
0
4
2
6
1
5
3
7
0
4
2
6
1
5
3
7
0
4
2
6
1
5
3
7
0
4
2
6
1
5
3
7
0
4
2
6
1
5
3
7
0
4
2
6
1
5
3
7
0
4
2
6
1
5
3
7
0
4
2
6
1
5
3
7
0
4
2
6
1
5
3
7
0
4
2
6
1
5
3
7
0
4
2
6
1
5
3
7
0
4
2
6
1
5
3
7
0
4
2
6
1
5
3
7
0
4
2
6
1
5
3
7
0
4
2
6
1
5
3
7
0
4
2
6
1
5
3
7
0
4
2
6
1
5
3
7
0
4
2
6
1
5
3
7
0
4
2
6
1
5
3
7
0
4
2
6
1
5
3
7
0
4
2
6
1
5
3
7
0
4
2
6
1
5
3
7
0
4
2
6
1
5
3
7
0
4
2
6
1
5
3
7
0
4
2
6
1
5
3
7
0
4
2
6
1
5
3
7
0
4
2
6
1
5
3
7
0
4
2
6
1
5
3
7
0
4
2
6
1
5
3
7
0
4
2
6
1
5
3
7
0
4
2
6
1
5
3
7
0
4
2
6
1
5
3
7
0
4
2
6
1
5
3
7
0
4
2
6
1
5
3
7
0
4
2
6
1
5
3
7
0
4
2
6
1
5
3
7
0
4
2
6
1
5
3
7
0
4
2
6
1
5
3
7
0
4
2
6
1
5
3
7
0
4
2
6
1
5
3
7
0
4
2
6
1
5
3
7
0
4
2
6
1
5
3
7
0
4
2
6
1
5
3
7
0
4
2
6
1
5
3
7
0
4
2
6
1
5
3
7
0
4
2
6
1
5
3
7
0
4
2
6
1
5
3
7
0
4
2
6
1
5
3
7
0
4
2
6
1
5
3
7
0
4
2
6
1
5
3
7
0
4
2
6
1
5
3
7
0
4
2
6
1
5
3
7
0
4
2
6
1
5
3
7
0
4
2
6
1
5
3
7
0
4
2
6
1
5
3
7
0
4
2
6
1
5
3
7
0
4
2
6
1
5
3
7
0
4
2
6
1
5
3
7
0
4
2
6
1
5
3
7
0
4
2
6
1
5
3
7
0
4
2
6
1
5
3
7
0
4
2
6
1
5
3
7
0
4
2
6
1
5
3
7
0
4
2
6
1
5
3
7
0
4
2
6
1
5
3
7
0
4
2
6
1
5
3
7
0
4
2
6
1
5
3
7
0
4
2
6
1
5
3
7
0
4
2
6
1
5
3
7
0
4
2
6
1
5
3
7
0
4
2
6
1
5
3
7
0
4
2
6
1
5
3
7
0
4
2
6
1
5
3
7
0
4
2
6
1
5
3
7
0
4
2
6
1
5
3
7
0
4
2
6
1
5
3
7
0
4
2
6
1
5
3
7
0
4
2
6
1
5
3
7
0
4
2
6
1
5
3
7
0
4
2
6
1
5
3
7
0
4
2
6
1
5
3
7
0
4
2
6
1
5
3
7
0
4
2
6
1
5
3
7
0
4
2
6
1
5
3
7
0
4
2
6
1
5
3
7
0
4
2
6
1
5
3
7
0
4
2
6
1
5
3
7
0
4
2
6
1
5
3
7
0
4
2
6
1
5
3
7
0
4
2
6
1
5
3
7
0
4
2
6
1
5
3
7
0
4
2
6
1
5
3
7
0
4
2
6
1
5
3
7
0
4
2
6
1
5
3
7
0
4
2
6
1
5
3
7
0
4
2
6
1
5
3
7
0
4
2
6
1
5
3
7
0
4
2
6
1
5
3
7
0
4
2
6
1
5
3
7
0
4
2
6
1
5
3
7
0
4
2
6
1
5
3
7
0
4
2
6
1
5
3
7
0
4
2
6
1
5
3
7
0
4
2
6
1
5
3
7
0
4
2
6
1
5
3
7
0
4
2
6
1
5
3
7
0
4
2
6
1
5
3
7
0
4
2
6
1
5
3
7
0
4
2
6
1
5
3
7
0
4
2
6
1
5
3
7
0
4
2
6
1
5
3
7
0
4
2
6
1
5
3
7
0
4
2
6
1
5
3
7
0
4
2
6
1
5
3
7
0
4
2
6
1
5
3
7
0
4
2
6
1
5
3
7
0
4
2
6
1
5
3
7
0
4
2
6
1
5
3
7
0
4
2
6
1
5
3
7
0
4
2
6
1
5
3
7
0
4
2
6
1
5
3
7
0
4
2
6
1
5
3
7
0
4
2
6
1
5
3
7
0
4
2
6
1
5
3
7
0
4
2
6
1
5
3
7
0
4
2
6
1
5
3
7
0
4
2
6
1
5
3
7
0
4
2
6
1
5
3
7
0
4
2
6
1
5
3
7
0
4
2
6
1
5
3
7
0
4
2
6
1
5
3
7
0
4
2
6
1
5
3
7
0
4
2
6
1
5
3
7
0
4
2
6
1
5
3
7
0
4
2
6
1
5
3
7
0
4
2
6
1
5
3
7
0
4
2
6
1
5
3
7
0
4
2
6
1
5
3
7
0
4
2
6
1
5
3
7
0
4
2
6
1
5
3
7
0
4
2
6
1
5
3
7
0
4
2
6
1
5
3
7
0
4
2
6
1
5
3
7
0
4
2
6
1
5
3
7
0
4
2
6
1
5
3
7
0
4
2
6
1
5
3
7
0
4
2
6
1
5
3
7
0
4
2
6
1
5
3
7
0
4
2
6
1
5
3
7
0
4
2
6
1
5
3
7
0
4
2
6
1
5
3
7
0
4
2
6
1
5
3
7
0
4
2
6
1
5
3
7
0
4
2
6
1
5
3
7
0
4
2
6
1
5
3
7
0
4
2
6
1
5
3
7
0
4
2
6
1
5
3
7
0
4
2
6
1
5
3
7
0
4
2
6
1
5
3
7
0
4
2
6
1
5
3
7
0
4
2
6
1
5
3
7
0
4
2
6
1
5
3
7
0
4
2
6
1
5
3
7
0
4
2
6
1
5
3
7
0
4
2
6
1
5
3
7
0
4
2
6
1
5
3
7
0
4
2
6
1
5
3
7
0
4
2
6
1
5
3
7
0
4
2
6
1
5
3
7
0
4
2
6
1
5
3
7
0
4
2
6
1
5
3
7
0
4
2
6
1
5
3
7
0
4
2
6
1
5
3
7
0
4
2
6
1
5
3
7
0
4
2
6
1
5
3
7
0
4
2
6
1
5
3
7
0
4
2
6
1
5
3
7
0
4
2
6
1
5
3
7
0
4
2
6
1
5
3
7
0
4
2
6
1
5
3
7
0
4
2
6
1
5
3
7
0
4
2
6
1
5
3
7
0
4
2
6
1
5
3
7
0
4
2
6
1
5
3
7
0
4
2
6
1
5
3
7
0
4
2
6
1
5
3
7
0
4
2
6
1
5
3
7
0
4
2
6
1
5
3
7
0
4
2
6
1
5
3
7
0
4
2
6
1
5
3
7
0
4
2
6
1
5
3
7
0
4
2
6
1
5
3
7
0
4
2
6
1
5
3
7
0
4
2
6
1
5
3
7
0
4
2
6
1
5
3
7
0
4
2
6
1
5
3
7
0
4
2
6
1
5
3
7
0
4
2
6
1
5
3
7
0
4
2
6
1
5
3
7
0
4
2
6
1
5
3
7
0
4
2
6
1
5
3
7
0
4
2
6
1
5
3
7
0
4
2
6
1
5
3
7
0
4
2
6
1
5
3
7
0
4
2
6
1
5
3
7
0
4
2
6
1
5
3
7
0
4
2
6
1
5
3
7
0
4
2
6
1
5
3
7
0
4
2
6
1
5
3
7
0
4
2
6
1
5
3
7
0
4
2
6
1
5
3
7
0
4
2
6
1
5
3
7
0
4
2
6
1
5
3
7
0
4
2
6
1
5
3
7
0
4
2
6
1
5
3
7
0
4
2
6
1
5
3
7
0
4
2
6
1
5
3
7
0
4
2
6
1
5
3
7
0
4
2
6
1
5
3
7
0
4
2
6
1
5
3
7
0
4
2
6
1
5
3
7
0
4
2
6
1
5
3
7
0
4
2
6
1
5
3
7
0
4
2
6
1
5
3
7
0
4
2
6
1
5
3
7
0
4
2
6
1
5
3
7
0
4
2
6
1
5
3
7
0
4
2
6
1
5
3
7
0
4
2
6
1
5
3
7
0
4
2
6
1
5
3
7
0
4
2
6
1
5
3
7
0
4
2
6
1
5
3
7
0
4
2
6
1
5
3
7
0
4
2
6
1
5
3
7
0
4
2
6
1
5
3
7
0
4
2
6
1
5
3
7
0
4
2
6
1
5
3
7
0
4
2
6
1
5
3
7
0
4
2
6
1
5
3
7
0
4
2
6
1
5
3
7
0
4
2
6
1
5
3
7
0
4
2
6
1
5
3
7
0
4
2
6
1
5
3
7
0
4
2
6
1
5
3
7
0
4
2
6
1
5
3
7
0
4
2
6
1
5
3
7
0
4
2
6
1
5
3
7
0
4
2
6
1
5
3
7
0
4
2
6
1
5
3
7
0
4
2
6
1
5
3
7
0
4
2
6
1
5
3
7
0
4
2
6
1
5
3
7
0
4
2
6
1
5
3
7
0
4
2
6
1
5
3
7
0
4
2
6
1
5
3
7
0
4
2
6
1
5
3
7
0
4
2
6
1
5
3
7
0
4
2
6
1
5
3
7
0
4
2
6
1
5
3
7
0
4
2
6
1
5
3
7
0
4
2
6
1
5
3
7
0
4
2
6
1
5
3
7
0
4
2
6
1
5
3
7
0
4
2
6
1
5
3
7
0
4
2
6
1
5
3
7
0
4
2
6
1
5
3
7
0
4
2
6
1
5
3
7
0
4
2
6
1
5
3
7
0
4
2
6
1
5
3
7
0
4
2
6
1
5
3
7
0
4
2
6
1
5
3
7
0
4
2
6
1
5
3
7
0
4
2
6
1
5
3
7
0
4
2
6
1
5
3
7
0
4
2
6
1
5
3
7
0
4
2
6
1
5
3
7
0
4
2
6
1
5
3
7
0
4
2
6
1
5
3
7
0
4
2
6
1
5
3
7
0
4
2
6
1
5
3
7
0
4
2
6
1
5
3
7
0
4
2
6
1
5
3
7
0
4
2
6
1
5
3
7
0
4
2
6
1
5
3
7
0
4
2
6
1
5
3
7
0
4
2
6
1
5
3
7
0
4
2
6
1
5
3
7
0
4
2
6
1
5
3
7
0
4
2
6
1
5
3
7
0
4
2
6
1
5
3
7
0
4
2
6
1
5
3
7
0
4
2
6
1
5
3
7
0
4
2
6
1
5
3
7
0
4
2
6
1
5
3
7
0
4
2
6
1
5
3
7
0
4
2
6
1
5
3
7
0
4
2
6
1
5
3
7
0
4
2
6
1
5
3
7
0
4
2
6
1
5
3
7
0
4
2
6
1
5
3
7
0
4
2
6
1
5
3
7
0
4
2
6
1
5
3
7
0
4
2
6
1
5
3
7
0
4
2
6
1
5
3
7
0
4
2
6
1
5
3
7
0
4
2
6
1
5
3
7
0
4
2
6
1
5
3
7
0
4
2
6
1
5
3
7
0
4
2
6
1
5
3
7
0
4
2
6
1
5
3
7
0
4
2
6
1
5
3
7
0
4
2
6
1
5
3
7
0
4
2
6
1
5
3
7
0
4
2
6
1
5
3
7
0
4
2
6
1
5
3
7
0
4
2
6
1
5
3
7
0
4
2
6
1
5
3
7
0
4
2
6
1
5
3
7
0
4
2
6
1
5
3
7
0
4
2
6
1
5
3
7
0
4
2
6
1
5
3
7
0
4
2
6
1
5
3
7
0
4
2
6
1
5
3
7
0
4
2
6
1
5
3
7
0
4
2
6
1
5
3
7
0
4
2
6
1
5
3
7
0
4
2
6
1
5
3
7
0
4
2
6
1
5
3
7
0
4
2
6
1
5
3
7
0
4
2
6
1
5
3
7
0
4
2
6
1
5
3
7
0
4
2
6
1
5
3
7
0
4
2
6
1
5
3
7
0
4
2
6
1
5
3
7
0
4
2
6
1
5
3
7
0
4
2
6
1
5
3
7
0
4
2
6
1
5
3
7
0
4
2
6
1
5
3
7
0
4
2
6
1
5
3
7
0
4
2
6
1
5
3
7
0
4
2
6
1
5
3
7
0
4
2
6
1
5
3
7
0
4
2
6
1
5
3
7
0
4
2
6
1
5
3
7
0
4
2
6
1
5
3
7
0
4
2
6
1
5
3
7
0
4
2
6
1
5
3
7
0
4
2
6
1
5
3
7
0
4
2
6
1
5
3
7
0
4
2
6
1
5
3
7
0
4
2
6
1
5
3
7
0
4
2
6
1
5
3
7
0
4
2
6
1
5
3
7
0
4
2
6
1
5
3
7
0
4
2
6
1
5
3
7
0
4
2
6
1
5
3
7
0
4
2
6
1
5
3
7
0
4
2
6
1
5
3
7
0
4
2
6
1
5
3
7
0
4
2
6
1
5
3
7
0
4
2
6
1
5
3
7
0
4
2
6
1
5
3
7
0
4
2
6
1
5
3
7
0
4
2
6
1
5
3
7
0
4
2
6
1
5
3
7
0
4
2
6
1
5
3
7
0
4
2
6
1
5
3
7
0
4
2
6
1
5
3
7
0
4
2
6
1
5
3
7
0
4
2
6
1
5
3
7
0
4
2
6
1
5
3
7
0
4
2
6
1
5
3
7
0
4
2
6
1
5
3
7
0
4
2
6
1
5
3
7
0
4
2
6
1
5
3
7
0
4
2
6
1
5
3
7
0
4
2
6
1
5
3
7
0
4
2
6
1
5
3
7
0
4
2
6
1
5
3
7
0
4
2
6
1
5
3
7
0
4
2
6
1
5
3
7
0
4
2
6
1
5
3
7
0
4
2
6
1
5
3
7
0
4
2
6
1
5
3
7
0
4
2
6
1
5
3
7
