2
3
4
6
10
18
28
37
51
66
81
101
121
2
2
4
6
7
10
12
17
20
25
29
34
39
2
3
4
5
8
10
13
17
22
27
33
41
48
2
3
4
5
8
10
13
17
22
28
34
41
49
2
3
3
6
8
10
13
17
21
26
32
39
46
2
2
4
6
7
11
13
17
21
26
32
40
46
2
2
4
5
8
10
14
17
21
26
33
39
46
2
3
3
6
8
12
18
25
33
44
54
67
80
2
3
4
5
8
10
14
18
25
29
37
44
55
