	NUMA 0 -> CUDA 0	1.5106 GB	1590.8202 MB/s	(transfers : 110 - avg 14.0625 MB)
	CUDA 0 -> NUMA 0	0.0000 GB	0.0000 MB/s	(transfers : 0 - avg -nan MB)
	NUMA 0 -> CUDA 0	3.0212 GB	2007.0383 MB/s	(transfers : 220 - avg 14.0625 MB)
	CUDA 0 -> NUMA 0	0.0000 GB	0.0000 MB/s	(transfers : 0 - avg -nan MB)
	NUMA 0 -> CUDA 0	4.5319 GB	1611.3488 MB/s	(transfers : 330 - avg 14.0625 MB)
	CUDA 0 -> NUMA 0	0.0000 GB	0.0000 MB/s	(transfers : 0 - avg -nan MB)
	NUMA 0 -> CUDA 0	20.1736 GB	4282.9887 MB/s	(transfers : 1469 - avg 14.0625 MB)
	CUDA 0 -> NUMA 0	0.0000 GB	0.0000 MB/s	(transfers : 0 - avg -nan MB)
	NUMA 0 -> CUDA 0	62.3337 GB	6467.5730 MB/s	(transfers : 4539 - avg 14.0625 MB)
	CUDA 0 -> NUMA 0	0.0000 GB	0.0000 MB/s	(transfers : 0 - avg -nan MB)
	NUMA 0 -> CUDA 0	117.8009 GB	7137.9508 MB/s	(transfers : 8578 - avg 14.0625 MB)
	CUDA 0 -> NUMA 0	0.0000 GB	0.0000 MB/s	(transfers : 0 - avg -nan MB)
	NUMA 0 -> CUDA 0	189.2258 GB	7452.7636 MB/s	(transfers : 13779 - avg 14.0625 MB)
	CUDA 0 -> NUMA 0	0.0000 GB	0.0000 MB/s	(transfers : 0 - avg -nan MB)
	NUMA 0 -> CUDA 0	278.1189 GB	7596.2138 MB/s	(transfers : 20252 - avg 14.0625 MB)
	CUDA 0 -> NUMA 0	0.0000 GB	0.0000 MB/s	(transfers : 0 - avg -nan MB)
	NUMA 0 -> CUDA 0	378.0670 GB	7763.1209 MB/s	(transfers : 27530 - avg 14.0625 MB)
	CUDA 0 -> NUMA 0	0.0000 GB	0.0000 MB/s	(transfers : 0 - avg -nan MB)
	NUMA 0 -> CUDA 0	494.6457 GB	7751.9086 MB/s	(transfers : 36019 - avg 14.0625 MB)
	CUDA 0 -> NUMA 0	0.0000 GB	0.0000 MB/s	(transfers : 0 - avg -nan MB)
	NUMA 0 -> CUDA 0	627.9099 GB	7886.0529 MB/s	(transfers : 45723 - avg 14.0625 MB)
	CUDA 0 -> NUMA 0	0.0000 GB	0.0000 MB/s	(transfers : 0 - avg -nan MB)
	NUMA 0 -> CUDA 0	775.0031 GB	7911.1786 MB/s	(transfers : 56434 - avg 14.0625 MB)
	CUDA 0 -> NUMA 0	0.0000 GB	0.0000 MB/s	(transfers : 0 - avg -nan MB)
	NUMA 0 -> CUDA 0	939.3311 GB	7998.5114 MB/s	(transfers : 68400 - avg 14.0625 MB)
	CUDA 0 -> NUMA 0	0.0000 GB	0.0000 MB/s	(transfers : 0 - avg -nan MB)
	NUMA 0 -> CUDA 0	1115.6753 GB	8699.5931 MB/s	(transfers : 81241 - avg 14.0625 MB)
	CUDA 0 -> NUMA 0	0.0000 GB	0.0000 MB/s	(transfers : 0 - avg -nan MB)
	NUMA 0 -> CUDA 0	1303.4592 GB	8615.7941 MB/s	(transfers : 94915 - avg 14.0625 MB)
	CUDA 0 -> NUMA 0	0.0000 GB	0.0000 MB/s	(transfers : 0 - avg -nan MB)
	NUMA 0 -> CUDA 0	1516.0034 GB	8544.2796 MB/s	(transfers : 110392 - avg 14.0625 MB)
	CUDA 0 -> NUMA 0	0.0000 GB	0.0000 MB/s	(transfers : 0 - avg -nan MB)
	NUMA 0 -> CUDA 0	1.5106 GB	2051.0720 MB/s	(transfers : 110 - avg 14.0625 MB)
	CUDA 0 -> NUMA 0	0.0000 GB	0.0000 MB/s	(transfers : 0 - avg -nan MB)
	NUMA 0 -> CUDA 0	3.0212 GB	2113.1630 MB/s	(transfers : 220 - avg 14.0625 MB)
	CUDA 0 -> NUMA 0	0.0000 GB	0.0000 MB/s	(transfers : 0 - avg -nan MB)
	NUMA 0 -> CUDA 0	4.5319 GB	1723.5983 MB/s	(transfers : 330 - avg 14.0625 MB)
	CUDA 0 -> NUMA 0	0.0000 GB	0.0000 MB/s	(transfers : 0 - avg -nan MB)
	NUMA 0 -> CUDA 0	6.5781 GB	1604.0990 MB/s	(transfers : 479 - avg 14.0625 MB)
	CUDA 0 -> NUMA 0	0.0000 GB	0.0000 MB/s	(transfers : 0 - avg -nan MB)
	NUMA 0 -> CUDA 0	9.7641 GB	1621.5379 MB/s	(transfers : 711 - avg 14.0625 MB)
	CUDA 0 -> NUMA 0	0.0000 GB	0.0000 MB/s	(transfers : 0 - avg -nan MB)
	NUMA 0 -> CUDA 0	12.9364 GB	1553.0800 MB/s	(transfers : 942 - avg 14.0625 MB)
	CUDA 0 -> NUMA 0	0.0000 GB	0.0000 MB/s	(transfers : 0 - avg -nan MB)
	NUMA 0 -> CUDA 0	18.1274 GB	1574.1073 MB/s	(transfers : 1320 - avg 14.0625 MB)
	CUDA 0 -> NUMA 0	0.0000 GB	0.0000 MB/s	(transfers : 0 - avg -nan MB)
	NUMA 0 -> CUDA 0	24.4171 GB	1672.4632 MB/s	(transfers : 1778 - avg 14.0625 MB)
	CUDA 0 -> NUMA 0	0.0000 GB	0.0000 MB/s	(transfers : 0 - avg -nan MB)
	NUMA 0 -> CUDA 0	33.3984 GB	1822.3584 MB/s	(transfers : 2432 - avg 14.0625 MB)
	CUDA 0 -> NUMA 0	0.0000 GB	0.0000 MB/s	(transfers : 0 - avg -nan MB)
	NUMA 0 -> CUDA 0	42.4622 GB	1902.5487 MB/s	(transfers : 3092 - avg 14.0625 MB)
	CUDA 0 -> NUMA 0	0.0000 GB	0.0000 MB/s	(transfers : 0 - avg -nan MB)
	NUMA 0 -> CUDA 0	54.0527 GB	1975.6765 MB/s	(transfers : 3936 - avg 14.0625 MB)
	CUDA 0 -> NUMA 0	0.0000 GB	0.0000 MB/s	(transfers : 0 - avg -nan MB)
	NUMA 0 -> CUDA 0	67.9916 GB	2123.6003 MB/s	(transfers : 4951 - avg 14.0625 MB)
	CUDA 0 -> NUMA 0	0.0000 GB	0.0000 MB/s	(transfers : 0 - avg -nan MB)
	NUMA 0 -> CUDA 0	81.3538 GB	2100.0312 MB/s	(transfers : 5924 - avg 14.0625 MB)
	CUDA 0 -> NUMA 0	0.0000 GB	0.0000 MB/s	(transfers : 0 - avg -nan MB)
	NUMA 0 -> CUDA 0	97.4213 GB	2967.4070 MB/s	(transfers : 7094 - avg 14.0625 MB)
	CUDA 0 -> NUMA 0	0.0000 GB	0.0000 MB/s	(transfers : 0 - avg -nan MB)
	NUMA 0 -> CUDA 0	113.8870 GB	2895.4242 MB/s	(transfers : 8293 - avg 14.0625 MB)
	CUDA 0 -> NUMA 0	0.0000 GB	0.0000 MB/s	(transfers : 0 - avg -nan MB)
	NUMA 0 -> CUDA 0	133.3603 GB	2879.4546 MB/s	(transfers : 9711 - avg 14.0625 MB)
	CUDA 0 -> NUMA 0	0.0000 GB	0.0000 MB/s	(transfers : 0 - avg -nan MB)
	NUMA 0 -> CUDA 0	1.5106 GB	1983.9537 MB/s	(transfers : 110 - avg 14.0625 MB)
	CUDA 0 -> NUMA 0	0.0000 GB	0.0000 MB/s	(transfers : 0 - avg -nan MB)
	NUMA 0 -> CUDA 0	3.0212 GB	2073.6518 MB/s	(transfers : 220 - avg 14.0625 MB)
	CUDA 0 -> NUMA 0	0.0000 GB	0.0000 MB/s	(transfers : 0 - avg -nan MB)
	NUMA 0 -> CUDA 0	4.5319 GB	1709.1685 MB/s	(transfers : 330 - avg 14.0625 MB)
	CUDA 0 -> NUMA 0	0.0000 GB	0.0000 MB/s	(transfers : 0 - avg -nan MB)
	NUMA 0 -> CUDA 0	9.2697 GB	2172.1494 MB/s	(transfers : 675 - avg 14.0625 MB)
	CUDA 0 -> NUMA 0	0.0000 GB	0.0000 MB/s	(transfers : 0 - avg -nan MB)
	NUMA 0 -> CUDA 0	19.6518 GB	3059.5175 MB/s	(transfers : 1431 - avg 14.0625 MB)
	CUDA 0 -> NUMA 0	0.0000 GB	0.0000 MB/s	(transfers : 0 - avg -nan MB)
	NUMA 0 -> CUDA 0	33.5770 GB	3640.0278 MB/s	(transfers : 2445 - avg 14.0625 MB)
	CUDA 0 -> NUMA 0	0.0000 GB	0.0000 MB/s	(transfers : 0 - avg -nan MB)
	NUMA 0 -> CUDA 0	50.5783 GB	4120.5242 MB/s	(transfers : 3683 - avg 14.0625 MB)
	CUDA 0 -> NUMA 0	0.0000 GB	0.0000 MB/s	(transfers : 0 - avg -nan MB)
	NUMA 0 -> CUDA 0	70.9030 GB	4244.0739 MB/s	(transfers : 5163 - avg 14.0625 MB)
	CUDA 0 -> NUMA 0	0.0000 GB	0.0000 MB/s	(transfers : 0 - avg -nan MB)
	NUMA 0 -> CUDA 0	95.4437 GB	4332.0627 MB/s	(transfers : 6950 - avg 14.0625 MB)
	CUDA 0 -> NUMA 0	0.0000 GB	0.0000 MB/s	(transfers : 0 - avg -nan MB)
	NUMA 0 -> CUDA 0	124.6948 GB	4380.2553 MB/s	(transfers : 9080 - avg 14.0625 MB)
	CUDA 0 -> NUMA 0	0.0000 GB	0.0000 MB/s	(transfers : 0 - avg -nan MB)
	NUMA 0 -> CUDA 0	156.0745 GB	4347.1600 MB/s	(transfers : 11365 - avg 14.0625 MB)
	CUDA 0 -> NUMA 0	0.0000 GB	0.0000 MB/s	(transfers : 0 - avg -nan MB)
	NUMA 0 -> CUDA 0	189.0472 GB	4156.0549 MB/s	(transfers : 13766 - avg 14.0625 MB)
	CUDA 0 -> NUMA 0	0.0000 GB	0.0000 MB/s	(transfers : 0 - avg -nan MB)
	NUMA 0 -> CUDA 0	229.8615 GB	4095.8066 MB/s	(transfers : 16738 - avg 14.0625 MB)
	CUDA 0 -> NUMA 0	0.0000 GB	0.0000 MB/s	(transfers : 0 - avg -nan MB)
	NUMA 0 -> CUDA 0	271.3623 GB	4747.0501 MB/s	(transfers : 19760 - avg 14.0625 MB)
	CUDA 0 -> NUMA 0	0.0000 GB	0.0000 MB/s	(transfers : 0 - avg -nan MB)
	NUMA 0 -> CUDA 0	317.1341 GB	4222.1323 MB/s	(transfers : 23093 - avg 14.0625 MB)
	CUDA 0 -> NUMA 0	0.0000 GB	0.0000 MB/s	(transfers : 0 - avg -nan MB)
	NUMA 0 -> CUDA 0	366.9159 GB	3901.0804 MB/s	(transfers : 26718 - avg 14.0625 MB)
	CUDA 0 -> NUMA 0	0.0000 GB	0.0000 MB/s	(transfers : 0 - avg -nan MB)
	NUMA 0 -> CUDA 0	1.5106 GB	2086.7371 MB/s	(transfers : 110 - avg 14.0625 MB)
	CUDA 0 -> NUMA 0	0.0000 GB	0.0000 MB/s	(transfers : 0 - avg -nan MB)
	NUMA 0 -> CUDA 0	3.0212 GB	2063.9930 MB/s	(transfers : 220 - avg 14.0625 MB)
	CUDA 0 -> NUMA 0	0.0000 GB	0.0000 MB/s	(transfers : 0 - avg -nan MB)
	NUMA 0 -> CUDA 0	4.5319 GB	1748.2476 MB/s	(transfers : 330 - avg 14.0625 MB)
	CUDA 0 -> NUMA 0	0.0000 GB	0.0000 MB/s	(transfers : 0 - avg -nan MB)
	NUMA 0 -> CUDA 0	9.3109 GB	2200.9032 MB/s	(transfers : 678 - avg 14.0625 MB)
	CUDA 0 -> NUMA 0	0.0000 GB	0.0000 MB/s	(transfers : 0 - avg -nan MB)
	NUMA 0 -> CUDA 0	20.3934 GB	3262.8201 MB/s	(transfers : 1485 - avg 14.0625 MB)
	CUDA 0 -> NUMA 0	0.0000 GB	0.0000 MB/s	(transfers : 0 - avg -nan MB)
	NUMA 0 -> CUDA 0	34.6893 GB	3810.9478 MB/s	(transfers : 2526 - avg 14.0625 MB)
	CUDA 0 -> NUMA 0	0.0000 GB	0.0000 MB/s	(transfers : 0 - avg -nan MB)
	NUMA 0 -> CUDA 0	52.8030 GB	4234.8979 MB/s	(transfers : 3845 - avg 14.0625 MB)
	CUDA 0 -> NUMA 0	0.0000 GB	0.0000 MB/s	(transfers : 0 - avg -nan MB)
	NUMA 0 -> CUDA 0	72.9904 GB	4538.9869 MB/s	(transfers : 5315 - avg 14.0625 MB)
	CUDA 0 -> NUMA 0	0.0000 GB	0.0000 MB/s	(transfers : 0 - avg -nan MB)
	NUMA 0 -> CUDA 0	98.3414 GB	4731.6167 MB/s	(transfers : 7161 - avg 14.0625 MB)
	CUDA 0 -> NUMA 0	0.0000 GB	0.0000 MB/s	(transfers : 0 - avg -nan MB)
	NUMA 0 -> CUDA 0	127.6062 GB	4699.8111 MB/s	(transfers : 9292 - avg 14.0625 MB)
	CUDA 0 -> NUMA 0	0.0000 GB	0.0000 MB/s	(transfers : 0 - avg -nan MB)
	NUMA 0 -> CUDA 0	161.3342 GB	4622.9815 MB/s	(transfers : 11748 - avg 14.0625 MB)
	CUDA 0 -> NUMA 0	0.0000 GB	0.0000 MB/s	(transfers : 0 - avg -nan MB)
	NUMA 0 -> CUDA 0	194.0735 GB	4460.1116 MB/s	(transfers : 14132 - avg 14.0625 MB)
	CUDA 0 -> NUMA 0	0.0000 GB	0.0000 MB/s	(transfers : 0 - avg -nan MB)
	NUMA 0 -> CUDA 0	234.8465 GB	4417.9463 MB/s	(transfers : 17101 - avg 14.0625 MB)
	CUDA 0 -> NUMA 0	0.0000 GB	0.0000 MB/s	(transfers : 0 - avg -nan MB)
	NUMA 0 -> CUDA 0	278.2013 GB	5107.4456 MB/s	(transfers : 20258 - avg 14.0625 MB)
	CUDA 0 -> NUMA 0	0.0000 GB	0.0000 MB/s	(transfers : 0 - avg -nan MB)
	NUMA 0 -> CUDA 0	324.8520 GB	4578.3493 MB/s	(transfers : 23655 - avg 14.0625 MB)
	CUDA 0 -> NUMA 0	0.0000 GB	0.0000 MB/s	(transfers : 0 - avg -nan MB)
	NUMA 0 -> CUDA 0	375.4028 GB	4278.7276 MB/s	(transfers : 27336 - avg 14.0625 MB)
	CUDA 0 -> NUMA 0	0.0000 GB	0.0000 MB/s	(transfers : 0 - avg -nan MB)
	NUMA 0 -> CUDA 0	1.5106 GB	2009.8495 MB/s	(transfers : 110 - avg 14.0625 MB)
	CUDA 0 -> NUMA 0	0.0000 GB	0.0000 MB/s	(transfers : 0 - avg -nan MB)
	NUMA 0 -> CUDA 0	3.0212 GB	2067.2991 MB/s	(transfers : 220 - avg 14.0625 MB)
	CUDA 0 -> NUMA 0	0.0000 GB	0.0000 MB/s	(transfers : 0 - avg -nan MB)
	NUMA 0 -> CUDA 0	4.5319 GB	1723.0716 MB/s	(transfers : 330 - avg 14.0625 MB)
	CUDA 0 -> NUMA 0	0.0000 GB	0.0000 MB/s	(transfers : 0 - avg -nan MB)
	NUMA 0 -> CUDA 0	6.9351 GB	1632.9834 MB/s	(transfers : 505 - avg 14.0625 MB)
	CUDA 0 -> NUMA 0	0.0000 GB	0.0000 MB/s	(transfers : 0 - avg -nan MB)
	NUMA 0 -> CUDA 0	12.4283 GB	1938.4514 MB/s	(transfers : 905 - avg 14.0625 MB)
	CUDA 0 -> NUMA 0	0.0000 GB	0.0000 MB/s	(transfers : 0 - avg -nan MB)
	NUMA 0 -> CUDA 0	20.6268 GB	2320.4605 MB/s	(transfers : 1502 - avg 14.0625 MB)
	CUDA 0 -> NUMA 0	0.0000 GB	0.0000 MB/s	(transfers : 0 - avg -nan MB)
	NUMA 0 -> CUDA 0	31.0638 GB	2574.2118 MB/s	(transfers : 2262 - avg 14.0625 MB)
	CUDA 0 -> NUMA 0	0.0000 GB	0.0000 MB/s	(transfers : 0 - avg -nan MB)
	NUMA 0 -> CUDA 0	44.6594 GB	2803.9513 MB/s	(transfers : 3252 - avg 14.0625 MB)
	CUDA 0 -> NUMA 0	0.0000 GB	0.0000 MB/s	(transfers : 0 - avg -nan MB)
	NUMA 0 -> CUDA 0	60.6720 GB	2987.4541 MB/s	(transfers : 4418 - avg 14.0625 MB)
	CUDA 0 -> NUMA 0	0.0000 GB	0.0000 MB/s	(transfers : 0 - avg -nan MB)
	NUMA 0 -> CUDA 0	80.8594 GB	3114.3598 MB/s	(transfers : 5888 - avg 14.0625 MB)
	CUDA 0 -> NUMA 0	0.0000 GB	0.0000 MB/s	(transfers : 0 - avg -nan MB)
	NUMA 0 -> CUDA 0	103.4637 GB	3141.3168 MB/s	(transfers : 7534 - avg 14.0625 MB)
	CUDA 0 -> NUMA 0	0.0000 GB	0.0000 MB/s	(transfers : 0 - avg -nan MB)
	NUMA 0 -> CUDA 0	127.9083 GB	3042.0386 MB/s	(transfers : 9314 - avg 14.0625 MB)
	CUDA 0 -> NUMA 0	0.0000 GB	0.0000 MB/s	(transfers : 0 - avg -nan MB)
	NUMA 0 -> CUDA 0	155.2505 GB	3117.1999 MB/s	(transfers : 11305 - avg 14.0625 MB)
	CUDA 0 -> NUMA 0	0.0000 GB	0.0000 MB/s	(transfers : 0 - avg -nan MB)
	NUMA 0 -> CUDA 0	186.4380 GB	3731.8584 MB/s	(transfers : 13576 - avg 14.0625 MB)
	CUDA 0 -> NUMA 0	0.0000 GB	0.0000 MB/s	(transfers : 0 - avg -nan MB)
	NUMA 0 -> CUDA 0	220.0699 GB	3381.3689 MB/s	(transfers : 16025 - avg 14.0625 MB)
	CUDA 0 -> NUMA 0	0.0000 GB	0.0000 MB/s	(transfers : 0 - avg -nan MB)
	NUMA 0 -> CUDA 0	258.0688 GB	3239.1096 MB/s	(transfers : 18792 - avg 14.0625 MB)
	CUDA 0 -> NUMA 0	0.0000 GB	0.0000 MB/s	(transfers : 0 - avg -nan MB)
	NUMA 0 -> CUDA 0	1.5106 GB	2106.7075 MB/s	(transfers : 110 - avg 14.0625 MB)
	CUDA 0 -> NUMA 0	0.0000 GB	0.0000 MB/s	(transfers : 0 - avg -nan MB)
	NUMA 0 -> CUDA 0	3.0212 GB	2087.1551 MB/s	(transfers : 220 - avg 14.0625 MB)
	CUDA 0 -> NUMA 0	0.0000 GB	0.0000 MB/s	(transfers : 0 - avg -nan MB)
	NUMA 0 -> CUDA 0	4.5319 GB	1721.7640 MB/s	(transfers : 330 - avg 14.0625 MB)
	CUDA 0 -> NUMA 0	0.0000 GB	0.0000 MB/s	(transfers : 0 - avg -nan MB)
	NUMA 0 -> CUDA 0	6.8939 GB	1629.9600 MB/s	(transfers : 502 - avg 14.0625 MB)
	CUDA 0 -> NUMA 0	0.0000 GB	0.0000 MB/s	(transfers : 0 - avg -nan MB)
	NUMA 0 -> CUDA 0	12.1811 GB	1944.1971 MB/s	(transfers : 887 - avg 14.0625 MB)
	CUDA 0 -> NUMA 0	0.0000 GB	0.0000 MB/s	(transfers : 0 - avg -nan MB)
	NUMA 0 -> CUDA 0	20.1462 GB	2248.3525 MB/s	(transfers : 1467 - avg 14.0625 MB)
	CUDA 0 -> NUMA 0	0.0000 GB	0.0000 MB/s	(transfers : 0 - avg -nan MB)
	NUMA 0 -> CUDA 0	30.4047 GB	2467.9899 MB/s	(transfers : 2214 - avg 14.0625 MB)
	CUDA 0 -> NUMA 0	0.0000 GB	0.0000 MB/s	(transfers : 0 - avg -nan MB)
	NUMA 0 -> CUDA 0	43.6707 GB	2723.7331 MB/s	(transfers : 3180 - avg 14.0625 MB)
	CUDA 0 -> NUMA 0	0.0000 GB	0.0000 MB/s	(transfers : 0 - avg -nan MB)
	NUMA 0 -> CUDA 0	59.4223 GB	2887.8880 MB/s	(transfers : 4327 - avg 14.0625 MB)
	CUDA 0 -> NUMA 0	0.0000 GB	0.0000 MB/s	(transfers : 0 - avg -nan MB)
	NUMA 0 -> CUDA 0	79.6371 GB	3001.9808 MB/s	(transfers : 5799 - avg 14.0625 MB)
	CUDA 0 -> NUMA 0	0.0000 GB	0.0000 MB/s	(transfers : 0 - avg -nan MB)
	NUMA 0 -> CUDA 0	101.6235 GB	3024.6508 MB/s	(transfers : 7400 - avg 14.0625 MB)
	CUDA 0 -> NUMA 0	0.0000 GB	0.0000 MB/s	(transfers : 0 - avg -nan MB)
	NUMA 0 -> CUDA 0	126.6037 GB	3005.0346 MB/s	(transfers : 9219 - avg 14.0625 MB)
	CUDA 0 -> NUMA 0	0.0000 GB	0.0000 MB/s	(transfers : 0 - avg -nan MB)
	NUMA 0 -> CUDA 0	154.3167 GB	2963.1711 MB/s	(transfers : 11237 - avg 14.0625 MB)
	CUDA 0 -> NUMA 0	0.0000 GB	0.0000 MB/s	(transfers : 0 - avg -nan MB)
	NUMA 0 -> CUDA 0	185.5179 GB	3642.7686 MB/s	(transfers : 13509 - avg 14.0625 MB)
	CUDA 0 -> NUMA 0	0.0000 GB	0.0000 MB/s	(transfers : 0 - avg -nan MB)
	NUMA 0 -> CUDA 0	220.6741 GB	3279.0380 MB/s	(transfers : 16069 - avg 14.0625 MB)
	CUDA 0 -> NUMA 0	0.0000 GB	0.0000 MB/s	(transfers : 0 - avg -nan MB)
	NUMA 0 -> CUDA 0	258.1650 GB	3055.3427 MB/s	(transfers : 18799 - avg 14.0625 MB)
	CUDA 0 -> NUMA 0	0.0000 GB	0.0000 MB/s	(transfers : 0 - avg -nan MB)
	NUMA 0 -> CUDA 0	1.5106 GB	1892.6120 MB/s	(transfers : 110 - avg 14.0625 MB)
	CUDA 0 -> NUMA 0	0.0000 GB	0.0000 MB/s	(transfers : 0 - avg -nan MB)
	NUMA 0 -> CUDA 0	3.0212 GB	1988.1161 MB/s	(transfers : 220 - avg 14.0625 MB)
	CUDA 0 -> NUMA 0	0.0000 GB	0.0000 MB/s	(transfers : 0 - avg -nan MB)
	NUMA 0 -> CUDA 0	4.5319 GB	1723.1200 MB/s	(transfers : 330 - avg 14.0625 MB)
	CUDA 0 -> NUMA 0	0.0000 GB	0.0000 MB/s	(transfers : 0 - avg -nan MB)
	NUMA 0 -> CUDA 0	19.2398 GB	4475.4952 MB/s	(transfers : 1401 - avg 14.0625 MB)
	CUDA 0 -> NUMA 0	0.0000 GB	0.0000 MB/s	(transfers : 0 - avg -nan MB)
	NUMA 0 -> CUDA 0	49.1776 GB	6232.1165 MB/s	(transfers : 3581 - avg 14.0625 MB)
	CUDA 0 -> NUMA 0	0.0000 GB	0.0000 MB/s	(transfers : 0 - avg -nan MB)
	NUMA 0 -> CUDA 0	93.2190 GB	6908.3003 MB/s	(transfers : 6788 - avg 14.0625 MB)
	CUDA 0 -> NUMA 0	0.0000 GB	0.0000 MB/s	(transfers : 0 - avg -nan MB)
	NUMA 0 -> CUDA 0	151.8448 GB	7147.3117 MB/s	(transfers : 11057 - avg 14.0625 MB)
	CUDA 0 -> NUMA 0	0.0000 GB	0.0000 MB/s	(transfers : 0 - avg -nan MB)
	NUMA 0 -> CUDA 0	225.8789 GB	7394.5925 MB/s	(transfers : 16448 - avg 14.0625 MB)
	CUDA 0 -> NUMA 0	0.0000 GB	0.0000 MB/s	(transfers : 0 - avg -nan MB)
	NUMA 0 -> CUDA 0	311.1603 GB	7510.1337 MB/s	(transfers : 22658 - avg 14.0625 MB)
	CUDA 0 -> NUMA 0	0.0000 GB	0.0000 MB/s	(transfers : 0 - avg -nan MB)
	NUMA 0 -> CUDA 0	414.8163 GB	7545.8942 MB/s	(transfers : 30206 - avg 14.0625 MB)
	CUDA 0 -> NUMA 0	0.0000 GB	0.0000 MB/s	(transfers : 0 - avg -nan MB)
	NUMA 0 -> CUDA 0	531.5048 GB	7698.0512 MB/s	(transfers : 38703 - avg 14.0625 MB)
	CUDA 0 -> NUMA 0	0.0000 GB	0.0000 MB/s	(transfers : 0 - avg -nan MB)
	NUMA 0 -> CUDA 0	665.6479 GB	7650.8405 MB/s	(transfers : 48471 - avg 14.0625 MB)
	CUDA 0 -> NUMA 0	0.0000 GB	0.0000 MB/s	(transfers : 0 - avg -nan MB)
	NUMA 0 -> CUDA 0	812.1094 GB	7708.7434 MB/s	(transfers : 59136 - avg 14.0625 MB)
	CUDA 0 -> NUMA 0	0.0000 GB	0.0000 MB/s	(transfers : 0 - avg -nan MB)
	NUMA 0 -> CUDA 0	974.5560 GB	8469.8137 MB/s	(transfers : 70965 - avg 14.0625 MB)
	CUDA 0 -> NUMA 0	0.0000 GB	0.0000 MB/s	(transfers : 0 - avg -nan MB)
	NUMA 0 -> CUDA 0	1147.8379 GB	8303.9713 MB/s	(transfers : 83583 - avg 14.0625 MB)
	CUDA 0 -> NUMA 0	0.0000 GB	0.0000 MB/s	(transfers : 0 - avg -nan MB)
	NUMA 0 -> CUDA 0	1345.9351 GB	8194.5208 MB/s	(transfers : 98008 - avg 14.0625 MB)
	CUDA 0 -> NUMA 0	0.0000 GB	0.0000 MB/s	(transfers : 0 - avg -nan MB)
	NUMA 0 -> CUDA 0	1.5106 GB	1993.5811 MB/s	(transfers : 110 - avg 14.0625 MB)
	CUDA 0 -> NUMA 0	0.0000 GB	0.0000 MB/s	(transfers : 0 - avg -nan MB)
	NUMA 0 -> CUDA 0	3.0212 GB	2093.4042 MB/s	(transfers : 220 - avg 14.0625 MB)
	CUDA 0 -> NUMA 0	0.0000 GB	0.0000 MB/s	(transfers : 0 - avg -nan MB)
	NUMA 0 -> CUDA 0	4.5319 GB	1767.7669 MB/s	(transfers : 330 - avg 14.0625 MB)
	CUDA 0 -> NUMA 0	0.0000 GB	0.0000 MB/s	(transfers : 0 - avg -nan MB)
	NUMA 0 -> CUDA 0	9.4070 GB	2274.7098 MB/s	(transfers : 685 - avg 14.0625 MB)
	CUDA 0 -> NUMA 0	0.0000 GB	0.0000 MB/s	(transfers : 0 - avg -nan MB)
	NUMA 0 -> CUDA 0	24.2111 GB	3607.7321 MB/s	(transfers : 1763 - avg 14.0625 MB)
	CUDA 0 -> NUMA 0	0.0000 GB	0.0000 MB/s	(transfers : 0 - avg -nan MB)
	NUMA 0 -> CUDA 0	43.9728 GB	4264.2061 MB/s	(transfers : 3202 - avg 14.0625 MB)
	CUDA 0 -> NUMA 0	0.0000 GB	0.0000 MB/s	(transfers : 0 - avg -nan MB)
	NUMA 0 -> CUDA 0	73.6771 GB	4812.0288 MB/s	(transfers : 5365 - avg 14.0625 MB)
	CUDA 0 -> NUMA 0	0.0000 GB	0.0000 MB/s	(transfers : 0 - avg -nan MB)
	NUMA 0 -> CUDA 0	105.6061 GB	4998.6993 MB/s	(transfers : 7690 - avg 14.0625 MB)
	CUDA 0 -> NUMA 0	0.0000 GB	0.0000 MB/s	(transfers : 0 - avg -nan MB)
	NUMA 0 -> CUDA 0	154.0421 GB	5493.0796 MB/s	(transfers : 11217 - avg 14.0625 MB)
	CUDA 0 -> NUMA 0	0.0000 GB	0.0000 MB/s	(transfers : 0 - avg -nan MB)
	NUMA 0 -> CUDA 0	218.2434 GB	5923.3605 MB/s	(transfers : 15892 - avg 14.0625 MB)
	CUDA 0 -> NUMA 0	0.0000 GB	0.0000 MB/s	(transfers : 0 - avg -nan MB)
	NUMA 0 -> CUDA 0	279.2313 GB	5980.0194 MB/s	(transfers : 20333 - avg 14.0625 MB)
	CUDA 0 -> NUMA 0	0.0000 GB	0.0000 MB/s	(transfers : 0 - avg -nan MB)
	NUMA 0 -> CUDA 0	357.6462 GB	6198.7768 MB/s	(transfers : 26043 - avg 14.0625 MB)
	CUDA 0 -> NUMA 0	0.0000 GB	0.0000 MB/s	(transfers : 0 - avg -nan MB)
	NUMA 0 -> CUDA 0	445.1660 GB	6350.8432 MB/s	(transfers : 32416 - avg 14.0625 MB)
	CUDA 0 -> NUMA 0	0.0000 GB	0.0000 MB/s	(transfers : 0 - avg -nan MB)
	NUMA 0 -> CUDA 0	528.2913 GB	7268.1433 MB/s	(transfers : 38469 - avg 14.0625 MB)
	CUDA 0 -> NUMA 0	0.0000 GB	0.0000 MB/s	(transfers : 0 - avg -nan MB)
	NUMA 0 -> CUDA 0	632.5516 GB	7147.2783 MB/s	(transfers : 46061 - avg 14.0625 MB)
	CUDA 0 -> NUMA 0	0.0000 GB	0.0000 MB/s	(transfers : 0 - avg -nan MB)
	NUMA 0 -> CUDA 0	735.4797 GB	6998.5158 MB/s	(transfers : 53556 - avg 14.0625 MB)
	CUDA 0 -> NUMA 0	0.0000 GB	0.0000 MB/s	(transfers : 0 - avg -nan MB)
