2560	191	58.52
5120	398	224.88
7680	1196	252.47
10240	2319	308.72
12800	4977	280.91
15360	17967	134.47
17920	43037	89.14
20480	72259	79.25
23040	113574	71.79
25600	170986	65.41
2560	194	57.76
5120	546	163.90
7680	1146	263.59
10240	2016	355.08
12800	3484	401.31
15360	9257	260.97
17920	19520	196.54
20480	31858	179.76
23040	54831	148.71
25600	88048	127.03
2560	203	55.00
5120	469	190.72
7680	1072	281.79
10240	2278	314.17
12800	4718	296.33
15360	10520	229.66
17920	29005	132.27
20480	40563	141.18
23040	64923	125.59
25600	104394	107.14
2560	177	63.19
5120	487	183.63
7680	1305	231.43
10240	2139	334.61
12800	4074	343.14
15360	6193	390.11
17920	11967	320.57
20480	18999	301.42
23040	38714	210.62
25600	51166	218.60
